
NOTENTABELLE
max.	34.00	100%	6.00	6.0
	33.50	99%	5.93	5.9
	33.00	97%	5.85	5.9
	32.50	96%	5.78	5.8
	32.00	94%	5.71	5.7
	31.50	93%	5.63	5.6
	31.00	91%	5.56	5.6
	30.50	90%	5.49	5.5
	30.00	88%	5.41	5.4
	29.50	87%	5.34	5.3
	29.00	85%	5.26	5.3
	28.50	84%	5.19	5.2
	28.00	82%	5.12	5.1
	27.50	81%	5.04	5.0
	27.00	79%	4.97	5.0
	26.50	78%	4.90	4.9
	26.00	76%	4.82	4.8
	25.50	75%	4.75	4.8
	25.00	74%	4.68	4.7
	24.50	72%	4.60	4.6
	24.00	71%	4.53	4.5
	23.50	69%	4.46	4.5
	23.00	68%	4.38	4.4
	22.50	66%	4.31	4.3
	22.00	65%	4.24	4.2
	21.50	63%	4.16	4.2
	21.00	62%	4.09	4.1
	20.50	60%	4.01	4.0
	20.00	59%	3.94	3.9
	19.50	57%	3.87	3.9
	19.00	56%	3.79	3.8
	18.50	54%	3.72	3.7
	18.00	53%	3.65	3.6
	17.50	51%	3.57	3.6
	17.00	50%	3.50	3.5
	16.50	49%	3.43	3.4
	16.00	47%	3.35	3.4
	15.50	46%	3.28	3.3
	15.00	44%	3.21	3.2
	14.50	43%	3.13	3.1
	14.00	41%	3.06	3.1
	13.50	40%	2.99	3.0
	13.00	38%	2.91	2.9
	12.50	37%	2.84	2.8
	12.00	35%	2.76	2.8
	11.50	34%	2.69	2.7
	11.00	32%	2.62	2.6
	10.50	31%	2.54	2.5
	10.00	29%	2.47	2.5
	9.50	28%	2.40	2.4
	9.00	26%	2.32	2.3
	8.50	25%	2.25	2.3
	8.00	24%	2.18	2.2
	7.50	22%	2.10	2.1
	7.00	21%	2.03	2.0
	