1656929023477,    642,     2022-07-04,  12:03:43
1656929078109,    641,     2022-07-04,  12:04:38
1656929378952,    241,     2022-07-04,  12:09:38
1656929679843,    162,     2022-07-04,  12:14:39
1656929980673,    157,     2022-07-04,  12:19:40
1656930281596,    338,     2022-07-04,  12:24:41
1656930582446,    187,     2022-07-04,  12:29:42
1656931447649,    674,     2022-07-04,  12:44:07
1656931748572,    674,     2022-07-04,  12:49:08
1656932049474,    666,     2022-07-04,  12:54:09
1656932350387,    672,     2022-07-04,  12:59:10
1656941323404,    628,     2022-07-04,  15:28:43
1656941625004,    619,     2022-07-04,  15:33:45
1656942679722,    605,     2022-07-04,  15:51:19
1656942980642,    599,     2022-07-04,  15:56:20
1656945456825,    598,     2022-07-04,  16:37:36
1656967880055,    773,     2022-07-04,  22:51:20
1656968180891,    775,     2022-07-04,  22:56:20
1656968481770,    770,     2022-07-04,  23:01:21
1656968782641,    767,     2022-07-04,  23:06:22
1656969083471,    767,     2022-07-04,  23:11:23
1656969384391,    187,     2022-07-04,  23:16:24
1656969685304,    140,     2022-07-04,  23:21:25
1656969986142,    120,     2022-07-04,  23:26:26
1656970287011,    65,     2022-07-04,  23:31:27
1657051597554,    762,     2022-07-05,  22:06:37
1657051898472,    763,     2022-07-05,  22:11:38
1657052199328,    764,     2022-07-05,  22:16:39
1657052500228,    766,     2022-07-05,  22:21:40
1657052801150,    762,     2022-07-05,  22:26:41
1657053102028,    762,     2022-07-05,  22:31:42
1657053402951,    763,     2022-07-05,  22:36:42
1657226992908,    59,     2022-07-07,  22:49:52
1657227293831,    79,     2022-07-07,  22:54:53
1657227594710,    171,     2022-07-07,  22:59:54
1657227895631,    171,     2022-07-07,  23:04:55
1657228196521,    173,     2022-07-07,  23:09:56
1657228497391,    176,     2022-07-07,  23:14:57
1657228798221,    785,     2022-07-07,  23:19:58
1657229099144,    785,     2022-07-07,  23:24:59
1657229400066,    786,     2022-07-07,  23:30:00
1657230751786,    787,     2022-07-07,  23:52:31
1657231052702,    786,     2022-07-07,  23:57:32
1657256579869,    601,     2022-07-08,  07:02:59
1657256880751,    680,     2022-07-08,  07:08:00
1657257181628,    702,     2022-07-08,  07:13:01
1657257482528,    724,     2022-07-08,  07:18:02
1657257783450,    747,     2022-07-08,  07:23:03
1657258084292,    764,     2022-07-08,  07:28:04
1657258385215,    767,     2022-07-08,  07:33:05
1657258686137,    784,     2022-07-08,  07:38:06
1657258987060,    785,     2022-07-08,  07:43:07
1657259287982,    772,     2022-07-08,  07:48:07
1657259588905,    652,     2022-07-08,  07:53:08
1657259889827,    785,     2022-07-08,  07:58:09
1657260190749,    785,     2022-07-08,  08:03:10
1657260491631,    785,     2022-07-08,  08:08:11
1657260792531,    785,     2022-07-08,  08:13:12
1657261093454,    785,     2022-07-08,  08:18:13
1657261394351,    785,     2022-07-08,  08:23:14
1657261695274,    785,     2022-07-08,  08:28:15
1657261996196,    785,     2022-07-08,  08:33:16
1657262297071,    785,     2022-07-08,  08:38:17
1657262597994,    785,     2022-07-08,  08:43:17
1657262898916,    786,     2022-07-08,  08:48:18
1657263199791,    785,     2022-07-08,  08:53:19
1657263500714,    756,     2022-07-08,  08:58:20
1657263801636,    772,     2022-07-08,  09:03:21
1657264102511,    785,     2022-07-08,  09:08:22
1657292277866,    558,     2022-07-08,  16:57:57
1657292578696,    563,     2022-07-08,  17:02:58
1657292879619,    559,     2022-07-08,  17:07:59
1657293180496,    556,     2022-07-08,  17:13:00
1657293481391,    558,     2022-07-08,  17:18:01
1657393018666,    233,     2022-07-09,  20:56:58
1657393319589,    221,     2022-07-09,  21:01:59
1657393620431,    204,     2022-07-09,  21:07:00
1657393921327,    195,     2022-07-09,  21:12:01
1657468004205,    482,     2022-07-10,  17:46:44
1657468305129,    487,     2022-07-10,  17:51:45
1657468605971,    516,     2022-07-10,  17:56:45
1657468906892,    534,     2022-07-10,  18:01:46
1657469207814,    520,     2022-07-10,  18:06:47
1657469508660,    513,     2022-07-10,  18:11:48
1657469810296,    491,     2022-07-10,  18:16:50
1657471271496,    517,     2022-07-10,  18:41:11
1657471572384,    478,     2022-07-10,  18:46:12
1657471873236,    454,     2022-07-10,  18:51:13
1657472174158,    444,     2022-07-10,  18:56:14
1657472475081,    450,     2022-07-10,  19:01:15
1657472775941,    457,     2022-07-10,  19:06:15
1657473076864,    446,     2022-07-10,  19:11:16
1657473377741,    420,     2022-07-10,  19:16:17
1657473678664,    415,     2022-07-10,  19:21:18
1657473979586,    403,     2022-07-10,  19:26:19
1657474280467,    406,     2022-07-10,  19:31:20
1657474581389,    404,     2022-07-10,  19:36:21
1657474882275,    400,     2022-07-10,  19:41:22
1657475183146,    400,     2022-07-10,  19:46:23
1657475484068,    402,     2022-07-10,  19:51:24
1657475784990,    403,     2022-07-10,  19:56:24
1657518245643,    783,     2022-07-11,  07:44:05
1657518546515,    783,     2022-07-11,  07:49:06
1657532786261,    783,     2022-07-11,  11:46:26
1657533087184,    783,     2022-07-11,  11:51:27
1657533388106,    783,     2022-07-11,  11:56:28
1657533688983,    782,     2022-07-11,  12:01:28
