Rechnung_24017;Auftrag_A448;Zürich;14.05.2024;14:22:54;ZahlungszielInTagen_10
Herkunft;41010000001234567;CH3089144756318541463;K234;Harald Müller;Rainstrasse 27;8610 Uster;CHE-111.222.333 MWST;harald.mueller@bluewin.ch
Endkunde;41301000000012497;CH1789144544456741313;Herrgott im Himmel;Wolke 7;6666 Himmelsdorf
RechnPos;1;Lizenzverkauf fürs Himmelreich;5;55.00;275.00;MWST_0.00%
RechnPos;2;Lizenzen um Absolution zu erteilen;25;85.00;2125.00;MWST_0.00%
RechnPos;3;Versicherung gegen Weltuntergang;1;500.00;500.00;MWST_0.00%
